{
  "type": "object",
  "properties" : {
    "id": { "type": "integer" },
    "relative_position": { "type": "integer" },
    "issue": { "type": "object" },
    "epic": {
      "type": "object",
      "required": [
        "id",
        "iid",
        "title"
      ],
      "properties": {
        "id": { "type": "integer" },
        "iid": { "type": "integer" },
        "title": { "type": "string" },
        "group_id": { "type": "integer" },
        "description": { "type": ["string", "null"] },
        "author": { "type": ["object", "null"] },
        "start_date": { "type": ["string", "null"] },
        "end_date": { "type": ["string", "null"] }
      },
      "additionalProperties": false
    },
    "issue": {
       "allOf": [
        { "$ref": "../../../../../../fixtures/api/schemas/public_api/v4/issue.json" },
          {
            "properties": {
              "weight": { "type": ["integer", "null"] }
            }
          }
        ]
     }
  },
  "required" : [ "id", "epic", "issue", "relative_position" ],
  "additionalProperties": false
}
